\relax 
\providecommand\hyper@newdestlabel[2]{}
\providecommand\HyperFirstAtBeginDocument{\AtBeginDocument}
\HyperFirstAtBeginDocument{\ifx\hyper@anchor\@undefined
\global\let\oldcontentsline\contentsline
\gdef\contentsline#1#2#3#4{\oldcontentsline{#1}{#2}{#3}}
\global\let\oldnewlabel\newlabel
\gdef\newlabel#1#2{\newlabelxx{#1}#2}
\gdef\newlabelxx#1#2#3#4#5#6{\oldnewlabel{#1}{{#2}{#3}}}
\AtEndDocument{\ifx\hyper@anchor\@undefined
\let\contentsline\oldcontentsline
\let\newlabel\oldnewlabel
\fi}
\fi}
\global\let\hyper@last\relax 
\gdef\HyperFirstAtBeginDocument#1{#1}
\providecommand\HyField@AuxAddToFields[1]{}
\providecommand\HyField@AuxAddToCoFields[2]{}
\@writefile{toc}{\beamer@sectionintoc {1}{Motivation}{1}{0}{1}}
\@writefile{nav}{\headcommand {\beamer@sectionpages {1}{0}}}
\@writefile{nav}{\headcommand {\beamer@subsectionpages {1}{0}}}
\@writefile{nav}{\headcommand {\sectionentry {1}{Motivation}{1}{Motivation}{0}}}
\@writefile{toc}{\beamer@sectionintoc {2}{Usage}{1}{0}{2}}
\@writefile{nav}{\headcommand {\beamer@sectionpages {1}{0}}}
\@writefile{nav}{\headcommand {\beamer@subsectionpages {1}{0}}}
\@writefile{nav}{\headcommand {\sectionentry {2}{Usage}{1}{Usage}{0}}}
\newlabel{code:project}{{1}{1}{}{Doc-Start}{}}
\@writefile{snm}{\beamer@slide {code:project}{1}}
\newlabel{code:optimize}{{1}{1}{}{Doc-Start}{}}
\@writefile{snm}{\beamer@slide {code:optimize}{1}}
\@writefile{nav}{\headcommand {\slideentry {2}{0}{1}{1/1}{}{0}}}
\@writefile{nav}{\headcommand {\beamer@framepages {1}{1}}}
\@writefile{toc}{\beamer@sectionintoc {3}{General practicalities}{2}{0}{3}}
\@writefile{nav}{\headcommand {\beamer@sectionpages {1}{1}}}
\@writefile{nav}{\headcommand {\beamer@subsectionpages {1}{1}}}
\@writefile{nav}{\headcommand {\sectionentry {3}{General practicalities}{2}{General practicalities}{0}}}
\newlabel{code:variadic}{{2}{2}{}{Doc-Start}{}}
\@writefile{snm}{\beamer@slide {code:variadic}{2}}
\@writefile{nav}{\headcommand {\slideentry {3}{0}{1}{2/2}{}{0}}}
\@writefile{nav}{\headcommand {\beamer@framepages {2}{2}}}
\newlabel{code:process}{{3}{3}{}{Doc-Start}{}}
\@writefile{snm}{\beamer@slide {code:process}{3}}
\@writefile{nav}{\headcommand {\slideentry {3}{0}{2}{3/3}{}{0}}}
\@writefile{nav}{\headcommand {\beamer@framepages {3}{3}}}
\newlabel{code:record}{{4}{4}{}{Doc-Start}{}}
\@writefile{snm}{\beamer@slide {code:record}{4}}
\@writefile{nav}{\headcommand {\slideentry {3}{0}{3}{4/4}{}{0}}}
\@writefile{nav}{\headcommand {\beamer@framepages {4}{4}}}
\newlabel{code:record_var}{{5}{5}{}{Doc-Start}{}}
\@writefile{snm}{\beamer@slide {code:record_var}{5}}
\@writefile{nav}{\headcommand {\slideentry {3}{0}{4}{5/5}{}{0}}}
\@writefile{nav}{\headcommand {\beamer@framepages {5}{5}}}
\newlabel{code:set}{{6}{6}{}{Doc-Start}{}}
\@writefile{snm}{\beamer@slide {code:set}{6}}
\@writefile{nav}{\headcommand {\slideentry {3}{0}{5}{6/6}{}{0}}}
\@writefile{nav}{\headcommand {\beamer@framepages {6}{6}}}
\@writefile{toc}{\beamer@sectionintoc {4}{Niche support}{7}{0}{4}}
\@writefile{nav}{\headcommand {\beamer@sectionpages {2}{6}}}
\@writefile{nav}{\headcommand {\beamer@subsectionpages {2}{6}}}
\@writefile{nav}{\headcommand {\sectionentry {4}{Niche support}{7}{Niche support}{0}}}
\newlabel{code:vector}{{7}{7}{}{Doc-Start}{}}
\@writefile{snm}{\beamer@slide {code:vector}{7}}
\@writefile{nav}{\headcommand {\slideentry {4}{0}{1}{7/7}{}{0}}}
\@writefile{nav}{\headcommand {\beamer@framepages {7}{7}}}
\newlabel{code:over_vector}{{8}{8}{}{Doc-Start}{}}
\@writefile{snm}{\beamer@slide {code:over_vector}{8}}
\@writefile{nav}{\headcommand {\slideentry {4}{0}{2}{8/8}{}{0}}}
\@writefile{nav}{\headcommand {\beamer@framepages {8}{8}}}
\newlabel{code:ad_vector}{{9}{9}{}{Doc-Start}{}}
\@writefile{snm}{\beamer@slide {code:ad_vector}{9}}
\@writefile{nav}{\headcommand {\slideentry {4}{0}{3}{9/9}{}{0}}}
\@writefile{nav}{\headcommand {\beamer@framepages {9}{9}}}
\newlabel{code:mpi_proj}{{10}{10}{}{Doc-Start}{}}
\@writefile{snm}{\beamer@slide {code:mpi_proj}{10}}
\newlabel{code:mpi_opti}{{10}{10}{}{Doc-Start}{}}
\@writefile{snm}{\beamer@slide {code:mpi_opti}{10}}
\@writefile{nav}{\headcommand {\slideentry {4}{0}{4}{10/10}{}{0}}}
\@writefile{nav}{\headcommand {\beamer@framepages {10}{10}}}
\newlabel{code:mpi_wrapper}{{11}{11}{}{Doc-Start}{}}
\@writefile{snm}{\beamer@slide {code:mpi_wrapper}{11}}
\@writefile{nav}{\headcommand {\slideentry {4}{0}{5}{11/11}{}{0}}}
\@writefile{nav}{\headcommand {\beamer@framepages {11}{11}}}
\newlabel{code:mpi_filenames}{{12}{12}{}{Doc-Start}{}}
\@writefile{snm}{\beamer@slide {code:mpi_filenames}{12}}
\@writefile{nav}{\headcommand {\slideentry {4}{0}{6}{12/12}{}{0}}}
\@writefile{nav}{\headcommand {\beamer@framepages {12}{12}}}
\@writefile{nav}{\headcommand {\beamer@partpages {1}{12}}}
\@writefile{nav}{\headcommand {\beamer@subsectionpages {7}{12}}}
\@writefile{nav}{\headcommand {\beamer@sectionpages {7}{12}}}
\@writefile{nav}{\headcommand {\beamer@documentpages {12}}}
\@writefile{nav}{\headcommand {\gdef \inserttotalframenumber {12}}}
